-------------------------------------------------------------------------------
Test set: com.niit.zoo.HyenaTest
-------------------------------------------------------------------------------
Tests run: 9, Failures: 0, Errors: 0, Skipped: 0, Time elapsed: 5.011 sec
