C:\Users\Andrew\IdeaProjects\java-niit-fall\zoo\src\main\java\com\niit\zoo\Player.java
C:\Users\Andrew\IdeaProjects\java-niit-fall\zoo\src\main\java\com\niit\zoo\animals\Horse.java
C:\Users\Andrew\IdeaProjects\java-niit-fall\zoo\src\main\java\com\niit\zoo\animals\Herbivore.java
C:\Users\Andrew\IdeaProjects\java-niit-fall\zoo\src\main\java\com\niit\zoo\food\Meat.java
C:\Users\Andrew\IdeaProjects\java-niit-fall\zoo\src\main\java\com\niit\zoo\animals\Carnivore.java
C:\Users\Andrew\IdeaProjects\java-niit-fall\zoo\src\main\java\com\niit\zoo\Cage.java
C:\Users\Andrew\IdeaProjects\java-niit-fall\zoo\src\main\java\com\niit\zoo\animals\Hyena.java
C:\Users\Andrew\IdeaProjects\java-niit-fall\zoo\src\main\java\com\niit\zoo\Animal.java
C:\Users\Andrew\IdeaProjects\java-niit-fall\zoo\src\main\java\com\niit\zoo\animals\Omnivore.java
C:\Users\Andrew\IdeaProjects\java-niit-fall\zoo\src\main\java\com\niit\zoo\food\Vegetable.java
C:\Users\Andrew\IdeaProjects\java-niit-fall\zoo\src\main\java\com\niit\zoo\animals\Lion.java
C:\Users\Andrew\IdeaProjects\java-niit-fall\zoo\src\main\java\com\niit\zoo\Food.java
